{
    "MonoBehaviour": {
        "m_Enabled": true,
        "m_EditorHideFlags": 0,
        "m_Name": "",
        "m_EditorClassIdentifier": "",
        "ToolbarIndex": 0,
        "m_iOSNotificationSettingsValues": {
            "m_Keys": [
                "UnityNotificationRequestAuthorizationOnAppLaunch",
                "UnityNotificationDefaultAuthorizationOptions",
                "UnityAddRemoteNotificationCapability",
                "UnityNotificationRequestAuthorizationForRemoteNotificationsOnAppLaunch",
                "UnityRemoteNotificationForegroundPresentationOptions",
                "UnityUseAPSReleaseEnvironment",
                "UnityUseLocationNotificationTrigger"
            ],
            "m_Values": [
                "True",
                "7",
                "False",
                "False",
                "-1",
                "False",
                "False"
            ]
        },
        "m_AndroidNotificationSettingsValues": {
            "m_Keys": [
                "UnityNotificationAndroidRescheduleOnDeviceRestart",
                "UnityNotificationAndroidUseCustomActivity",
                "UnityNotificationAndroidCustomActivityString"
            ],
            "m_Values": [
                "False",
                "False",
                "com.unity3d.player.UnityPlayerActivity"
            ]
        },
        "DrawableResources": [
            {
                "Id": "icon_0",
                "Type": 0,
                "Asset": {
                    "fileID": 2800000,
                    "guid": "45d48c7edfdfd14499275a9d0fd6f455",
                    "type": 3
                }
            },
            {
                "Id": "icon_1",
                "Type": 1,
                "Asset": {
                    "fileID": 2800000,
                    "guid": "2b82608bf3f14284389eaee414b0c883",
                    "type": 3
                }
            },
            {
                "Id": "icon_2",
                "Type": 1,
                "Asset": {
                    "fileID": 2800000,
                    "guid": "87540f87345a5644eb86c909a0fd5e2e",
                    "type": 3
                }
            }
        ]
    }
}